…
<a id="org43ecad4"></a>

# Basic Usage

For this tutorial, we&rsquo;re going to use the included BBC News dataset, which is comprised of 2225 documents, 417 of which belong to the &ldquo;politics&rdquo; class. Let&rsquo;s take a quick look at the data:

```R
activeText::bbc_data_all
```

    # A tibble: 2,225 × 3
       id    text                                                              label
       <chr> <chr>                                                             <dbl>
     1 1     "Ink helps drive democracy in Asia\n\nThe Kyrgyz Republic, a sma…     0
     2 2     "China net cafe culture crackdown\n\nChinese authorities closed …     0
     3 3     "Microsoft seeking spyware trojan\n\nMicrosoft is investigating …     0
     4 4     "Digital guru floats sub-$100 PC\n\nNicholas Negroponte, chairma…     0
     5 5     "Technology gets the creative bug\n\nThe hi-tech and the arts wo…     0
     6 6     "Wi-fi web reaches farmers in Peru\n\nA network of community com…     0
     7 7     "Microsoft releases bumper patches\n\nMicrosoft has warned PC us…     0
     8 8     "Virus poses as Christmas e-mail\n\nSecurity firms are warning a…     0
     9 9     "Apple laptop is 'greatest gadget'\n\nThe Apple Powerbook 100 ha…     0
    10 10    "Google's toolbar sparks concern\n\nSearch engine firm Google ha…     0
    # … with 2,215 more rows
…
The user will continue to be prompted for labels until the number of labels per iteration is reached. The window will briefly disappear while the EM algorithm runs.

Once the maximum iterations for labeling is reached, an Expectation Maximization (EM) algorithm will run until log-likelihood of the posterior distribution of the parameters stops increasing. The progress of the EM algorithm is tracked by a progress bar in the terminal:

    Active Iter: 1/5 EM Runs: [====>--------------------------------] 14/100 (max)

The numerator of the number on the left hand side indicates the current iteration of the active learning process, while the denominator indicates the maximum number of active learning steps allowed. Similarly, the progress bar and the number on the right indicate the number of iterations of the EM algorithm in a given active step.

Once the maximum number of active iterations have run, or a stopping condition is met (such as running out of documents to label), the process ends. We can inspect the classification results as follows.

```R
results$docs
```

    # A tibble: 2,225 × 5
       id    text                                            label Class_1   Class_2
       <chr> <chr>                                           <dbl>   <dbl>     <dbl>
     1 1     "Ink helps drive democracy in Asia\n\nThe Kyrg…     0       0 1   e+  0
     2 2     "China net cafe culture crackdown\n\nChinese a…     0       1 1.36e- 28
     3 3     "Microsoft seeking spyware trojan\n\nMicrosoft…     0       1 1.56e- 61
     4 4     "Digital guru floats sub-$100 PC\n\nNicholas N…     0       1 1.10e- 59
     5 5     "Technology gets the creative bug\n\nThe hi-te…     0       1 1.69e-109
     6 6     "Wi-fi web reaches farmers in Peru\n\nA networ…     0       1 2.14e- 63
     7 7     "Microsoft releases bumper patches\n\nMicrosof…     0       1 5.92e- 51
     8 8     "Virus poses as Christmas e-mail\n\nSecurity f…     0       1 4.12e- 62
     9 9     "Apple laptop is 'greatest gadget'\n\nThe Appl…     0       1 9.90e-205
    10 10    "Google's toolbar sparks concern\n\nSearch eng…     0       1 2.43e- 90
    # … with 2,215 more rows
…
